L4 L6 L8 L12 L8 R12 L12 L8 R12 L12 L4 L6 L8 L12 L8 R12 L12 R12 L6 L6 L8 L4 L6 L8 L12 R12 L6 L6 L8 L8 R12 L12 R12 L6 L6 L8
------------ ========== ========== ------------ ========== ............ ------------ ............ ========== ............
AAAAAAAAAAAA,BBBBBBBBBB,BBBBBBBBBB,AAAAAAAAAAAA,BBBBBBBBBB,CCCCCCCCCCCC,AAAAAAAAAAAA,CCCCCCCCCCCC,BBBBBBBBBB,CCCCCCCCCCCC

=> A,B,B,A,B,C,A,C,B,C

................#############..........
................#...........#..........
................#...........#..........
................#...........#..........
................#...........#..........
................#...........#..........
................#...........#..........
................#...........#..........
....#############...........#...#######
....#.......................#...#.....#
....#.......................#...#.....#
....#.......................#...#.....#
....#.......................#########.#
....#...........................#...#.#
#########.................#############
#...#...#.................#.....#...#..
#...#...#.................#.....#...#..
#...#...#.................#.........#..
#...#...#.................#.####^...#..
#...#...#.................#.#.......#..
#...#####.................#.#.......#..
#.........................#.#.......#..
#.........................#.#.......#..
#.........................#.#.......#..
#.........................#.#########..
#.........................#............
#########.....#############............
........#.....#........................
......#######.#........................
......#.#...#.#........................
......#.#...#.#........................
......#.#...#.#........................
......#.#...#.#........................
......#.#...#.#........................
......#########........................
........#...#..........................
........#...#..........................
........#...#..........................
........#############..................
............#.......#..................
............#############..............
....................#...#..............
....................#...#..............
....................#...#..............
..................#########............
..................#.#...#.#............
..................#.#...#.#............
..................#.#...#.#............
..................#######.#............
....................#.....#............
....................#######............